Summarize Variables • rubix
…
However, if one of the arguments is not an integer, numeric, or double, an error will be thrown:

mtcars2 <- mtcars
mtcars2$cyl <- as.character(mtcars2$cyl)
rubix::summarize_numeric_vars(mtcars2, cyl, disp)
#> Error in rubix::summarize_numeric_vars(mtcars2, cyl, disp): cyl: not numeric, integer, or double.

Summarizing Variable Values

While summarize_ functions for variables provides a comprehensive set of summary statistics and metadata, the summarize_values() function returns all counts for the unique values for each variable.

rubix::summarize_values(mtcars)
#> # A tibble: 171 x 3
#>    Variable Value COUNT
#>    <chr>    <dbl> <int>
#>  1 mpg       10.4     2
#>  2 mpg       13.3     1
#>  3 mpg       14.3     1
#>  4 mpg       14.7     1
#>  5 mpg       15       1
#>  6 mpg       15.2     2
#>  7 mpg       15.5     1
#>  8 mpg       15.8     1
#>  9 mpg       16.4     1
#> 10 mpg       17.3     1
#> # … with 161 more rows
…
